{
  "address":"4aa6a5da078335f4334d122867c7120da61eaa6a",
  "id":"8361628f-c4b1-46ae-9859-a0300abd9f0f",
  "version":3,
  "crypto":
  {
    "cipher":"aes-128-ctr",
    "ciphertext":"7b356de8c1367a2a2004f93f83ce1860ec18f84eff1099c1e3066f4e7cfaf556",
    "cipherparams":
    {
      "iv":"f9e1f4c6021b16afa0466a029d83bc60"
    },
    "kdf":"scrypt",
    "kdfparams":
    {
      "dklen":32,
      "n":262144,
      "p":1,
      "r":8,
      "salt":"7ab100dab41df3be5f7519637ff4bdffad9a8ff05dd5398e68787c4f64993717"
    },
    "mac":"7f161d4bf7b8caf09173751f7770b3e2286c159180fd4677d8ee611bdf587a98"
  }
}